Workshop Bash & R - 11 Manipulación y limpieza de datos
…
group_by(House) separa los datos por cada casa.

summarise() calcula un resultado para cada grupo; en este caso, n() cuenta cuántas filas hay en cada casa.

Ejercicio 3

Realiza el conteo de cada uno de los tipos de Patronus.

Solución

Code

hp_data |>   group_by(Patronus) |>   summarise(N = n()) 

# A tibble: 21 × 2
   Patronus                   N
   <chr>                  <int>
 1 ""                        10
 2 "Boar"                     1
 3 "Cat"                      2
 4 "Doe"                      2
 5 "Fox"                      1
 6 "Goat"                     1
 7 "Hare"                     1
 8 "Horse"                    1
 9 "Jack Russell terrier"     1
10 "Jack rabbit, Wolf"        1
# ℹ 11 more rows
…
